Path,Algorithm,Precision,Recall,F-score,Retrieved,Hits,Relevant
/opt/dataset-popular/www.irs.gov/www.irs.gov/index.html,vips,0,0.0,0,0,0,20
/opt/dataset-popular/www.house.gov/www.house.gov/index.html,vips,0.5185185185185185,0.3888888888888889,0.4444444444444444,27,14,36
/opt/dataset-popular/www.senate.gov/www.senate.gov/index.html,vips,0.36363636363636365,0.18181818181818182,0.24242424242424246,11,4,22
/opt/dataset-popular/www.un.org/www.un.org/en/index.html,vips,0.14285714285714285,0.04,0.0625,7,1,25
/opt/dataset-popular/www.nih.gov/www.nih.gov/index.html,vips,0.2,0.2857142857142857,0.23529411764705882,40,8,28
/opt/dataset-popular/www.worldbank.org/www.worldbank.org/index.html,vips,0.0,0.0,0,51,0,28
/opt/dataset-popular/www.findlaw.com/www.findlaw.com/index.html,vips,0.3,0.125,0.17647058823529413,10,3,24
/opt/dataset-popular/www.cpsc.gov/www.cpsc.gov/index.html,vips,0.21052631578947367,0.3076923076923077,0.25,57,12,39
/opt/dataset-popular/www.wto.org/www.wto.org/index.html,vips,0.0,0.0,0,7,0,18
/opt/dataset-popular/www.fda.gov/www.fda.gov/index.html,vips,0.14285714285714285,0.09090909090909091,0.1111111111111111,14,2,22
/opt/dataset-popular/www.who.int/www.who.int/en/index.html,vips,0.2,0.07142857142857142,0.10526315789473682,5,1,14
/opt/dataset-popular/www.osha.gov/www.osha.gov/index.html,vips,0.0,0.0,0,1,0,14
/opt/dataset-popular/www.ama-assn.org/www.ama-assn.org/ama.html,vips,0.06666666666666667,0.030303030303030304,0.041666666666666664,15,1,33
/opt/dataset-popular/www.medicare.gov/www.medicare.gov/index.html,vips,0.23809523809523808,0.38461538461538464,0.2941176470588235,21,5,13
/opt/dataset-popular/abcnews.go.com/abcnews.go.com/index.html,vips,0.12903225806451613,0.25,0.1702127659574468,31,4,16
/opt/dataset-popular/www.spiegel.de/www.spiegel.de/international/index.html,vips,0.0,0.0,0,5,0,14
/opt/dataset-popular/www.euronews.com/www.euronews.com/index.html,vips,0.07692307692307693,0.045454545454545456,0.05714285714285715,13,1,22
/opt/dataset-popular/www.foxnews.com/www.foxnews.com/index.html,vips,0.0,0.0,0,25,0,21
/opt/dataset-popular/www.journalregister.com/www.journalregister.com/index.html,vips,0.23076923076923078,0.3333333333333333,0.27272727272727276,13,3,9
/opt/dataset-popular/news.google.com/news.google.com/index.html,vips,0.0,0.0,0,5,0,13
/opt/dataset-popular/www.mcclatchydc.com/www.mcclatchydc.com/index.html,vips,0.05263157894736842,0.05263157894736842,0.05263157894736842,19,1,19
/opt/dataset-popular/www.fifa.com/www.fifa.com/index.html,vips,0.05555555555555555,0.05263157894736842,0.05405405405405406,18,1,19
/opt/dataset-popular/www.tripadvisor.com/www.tripadvisor.com/index.html,vips,0.0,0.0,0,27,0,19
/opt/dataset-popular/www.lonelyplanet.com/www.lonelyplanet.com/index.html,vips,0.0,0.0,0,12,0,15
/opt/dataset-popular/www.kbb.com/www.kbb.com/index.html,vips,0.16666666666666666,0.06666666666666667,0.09523809523809522,6,1,15
/opt/dataset-popular/www.geocaching.com/www.geocaching.com/index.html,vips,0.07407407407407407,0.2857142857142857,0.11764705882352941,27,2,7
/opt/dataset-popular/www.fodors.com/www.fodors.com/index.html,vips,0.01818181818181818,0.08333333333333333,0.029850746268656716,55,1,12
/opt/dataset-popular/www.uefa.com/www.uefa.com/index.html,vips,0.0,0.0,0,3,0,23
/opt/dataset-popular/www.ford.com/www.ford.com/index.html,vips,0.0,0.0,0,1,0,6
/opt/dataset-popular/www.google.com/www.google.com/earth/index.html,vips,0.7142857142857143,0.7142857142857143,0.7142857142857143,7,5,7
/opt/dataset-popular/www.weather.gov/www.weather.gov/index.html,vips,0.46153846153846156,0.21428571428571427,0.2926829268292683,13,6,28
/opt/dataset-popular/www.noaa.gov/www.noaa.gov/index.html,vips,0.5,0.18181818181818182,0.26666666666666666,4,2,11
/opt/dataset-popular/www.aaas.org/www.aaas.org/index.html,vips,0.25,0.2,0.22222222222222224,12,3,15
/opt/dataset-popular/www.sciencemag.org/www.sciencemag.org/index.html,vips,0.18181818181818182,0.1111111111111111,0.13793103448275862,11,2,18
/opt/dataset-popular/www.nature.com/www.nature.com/index.html,vips,0.24,0.2727272727272727,0.2553191489361702,25,6,22
/opt/dataset-popular/www.amnesty.org/www.amnesty.org/index.html,vips,0.0,0.0,0,3,0,13
/opt/dataset-popular/www.bing.com/www.bing.com/translator/index.html,vips,0.0,0.0,0,5,0,13
/opt/dataset-popular/www.cato.org/www.cato.org/index.html,vips,0.0,0.0,0,9,0,12
/opt/dataset-popular/www.toastmasters.org/www.toastmasters.org/index.html,vips,0,0.0,0,0,0,12
/opt/dataset-popular/www.factcheck.org/www.factcheck.org/index.html,vips,0.25,0.4444444444444444,0.32,16,4,9
/opt/dataset-popular/www.webstandards.org/www.webstandards.org/index.html,vips,0.2,0.3076923076923077,0.24242424242424246,20,4,13
/opt/dataset-popular/www.alistapart.com/www.alistapart.com/index.html,vips,0.14285714285714285,0.5,0.22222222222222224,21,3,6
/opt/dataset-popular/www.postsecret.com/www.postsecret.com/index.html,vips,0.08333333333333333,0.25,0.125,12,1,4
/opt/dataset-popular/www.reuters.com/www.reuters.com/index.html,vips,0.08333333333333333,0.14285714285714285,0.10526315789473685,12,1,7
/opt/dataset-popular/www.economist.com/www.economist.com/index.html,vips,0.125,0.14285714285714285,0.13333333333333333,8,1,7
/opt/dataset-popular/www.adobe.com/www.adobe.com/products/acrobat.html,vips,0.0,0.0,0,25,0,12
/opt/dataset-popular/www.openoffice.org/www.openoffice.org/index.html,vips,0.21739130434782608,0.5555555555555556,0.3125,23,5,9
/opt/dataset-popular/www.w3.org/www.w3.org/index.html,vips,0.14285714285714285,0.15384615384615385,0.14814814814814817,14,2,13
/opt/dataset-popular/eu.real.com/eu.real.com/index.html,vips,0.13333333333333333,0.18181818181818182,0.15384615384615383,15,2,11
/opt/dataset-popular/www.gnu.org/www.gnu.org/index.html,vips,0.29411764705882354,0.5555555555555556,0.3846153846153846,17,5,9
/opt/dataset-popular/speedtest.net/speedtest.net/index.html,vips,0.375,0.25,0.3,8,3,12
/opt/dataset-popular/www.wired.com/www.wired.com/index.html,vips,0.0,0.0,0,3,0,13
/opt/dataset-popular/www.pandora.com/www.pandora.com/restricted.html,vips,0,0.0,0,0,0,6
/opt/dataset-popular/www.break.com/www.break.com/index.html,vips,0.14705882352941177,0.3125,0.2,34,5,16
/opt/dataset-popular/www.edmunds.com/www.edmunds.com/index.html,vips,0.0,0.0,0,34,0,16
/opt/dataset-popular/www.toyota.com/www.toyota.com/index.html,vips,0,0.0,0,0,0,8
/opt/dataset-popular/www.scientificamerican.com/www.scientificamerican.com/index.html,vips,0.05263157894736842,0.15789473684210525,0.07894736842105263,57,3,19
/opt/dataset-popular/www.treehugger.com/www.treehugger.com/index.html,vips,0.0,0.0,0,14,0,13
/opt/dataset-popular/www.rhymezone.com/www.rhymezone.com/index.html,vips,0,0.0,0,0,0,12
/opt/dataset-popular/www.nlm.nih.gov/www.nlm.nih.gov/index.html,vips,0.25,0.3076923076923077,0.27586206896551724,16,4,13
/opt/dataset-popular/www.healthfinder.gov/www.healthfinder.gov/index.html,vips,0.0,0.0,0,13,0,13
/opt/dataset-popular/www.mayoclinic.com/www.mayoclinic.com/index.html,vips,0,0.0,0,0,0,17
/opt/dataset-popular/www.drugs.com/www.drugs.com/index.html,vips,0.08333333333333333,0.04,0.05405405405405406,12,1,25
/opt/dataset-popular/www.alz.org/www.alz.org/index.html,vips,0.043478260869565216,0.14285714285714285,0.06666666666666667,46,2,14
/opt/dataset-popular/www.voanews.com/www.voanews.com/index.html,vips,0.19230769230769232,0.30303030303030304,0.23529411764705882,52,10,33
